\relax 
\citation{appleCNN}
\citation{mangoCNN}
\citation{alexNet}
\citation{maizeCNN}
\citation{GoogLeNet}
\@writefile{toc}{\contentsline {section}{\numberline {I}Introduction}{1}\protected@file@percent }
\newlabel{sec:introduction}{{I}{1}}
\@writefile{toc}{\contentsline {subsection}{\numberline {I-A}Background}{1}\protected@file@percent }
\@writefile{toc}{\contentsline {subsection}{\numberline {I-B}Motivation}{1}\protected@file@percent }
\@writefile{toc}{\contentsline {subsection}{\numberline {I-C}Problem Definition}{1}\protected@file@percent }
\@writefile{toc}{\contentsline {subsection}{\numberline {I-D}Expected Deliverables}{1}\protected@file@percent }
\@writefile{toc}{\contentsline {section}{\numberline {II}Related Work}{1}\protected@file@percent }
\@writefile{lof}{\contentsline {figure}{\numberline {1}{\ignorespaces Distribution of plant classes in the dataset. Note that there are many more tomatoes than potatoes or peppers.}}{2}\protected@file@percent }
\newlabel{fig:plantID}{{1}{2}}
\@writefile{toc}{\contentsline {section}{\numberline {III}Exploratory Dataset Analysis}{2}\protected@file@percent }
\newlabel{sec:explore}{{III}{2}}
\@writefile{toc}{\contentsline {subsection}{\numberline {III-A}Dataset}{2}\protected@file@percent }
\newlabel{sec:dataset}{{III-A}{2}}
\@writefile{toc}{\contentsline {subsection}{\numberline {III-B}Plant Classes}{2}\protected@file@percent }
\@writefile{toc}{\contentsline {subsection}{\numberline {III-C}Tomato Leaf Disease Classes}{2}\protected@file@percent }
\@writefile{lof}{\contentsline {figure}{\numberline {2}{\ignorespaces Distribution of tomato disease classes in the dataset.}}{2}\protected@file@percent }
\newlabel{fig:tomatoDiseaseID}{{2}{2}}
\@writefile{lof}{\contentsline {figure}{\numberline {3}{\ignorespaces Distribution of pepper disease classes in the dataset.}}{2}\protected@file@percent }
\newlabel{fig:pepDiseaseID}{{3}{2}}
\@writefile{toc}{\contentsline {subsection}{\numberline {III-D}Pepper Leaf Disease Classes}{2}\protected@file@percent }
\@writefile{toc}{\contentsline {subsection}{\numberline {III-E}Potato Leaf Disease Classes}{2}\protected@file@percent }
\citation{leafSEG}
\citation{hsvVSrgb}
\@writefile{lof}{\contentsline {figure}{\numberline {4}{\ignorespaces Distribution of potato disease classes in the dataset.}}{3}\protected@file@percent }
\newlabel{fig:potDiseaseID}{{4}{3}}
\@writefile{toc}{\contentsline {subsection}{\numberline {III-F}Implications}{3}\protected@file@percent }
\@writefile{toc}{\contentsline {section}{\numberline {IV}Preprocessing}{3}\protected@file@percent }
\@writefile{toc}{\contentsline {subsection}{\numberline {IV-A}Segmentation into Training, Test, and Validation sets}{3}\protected@file@percent }
\@writefile{toc}{\contentsline {subsection}{\numberline {IV-B}Edge Based Detection}{3}\protected@file@percent }
\@writefile{lof}{\contentsline {figure}{\numberline {5}{\ignorespaces Edge Based Detection on Blue Image with different variances }}{3}\protected@file@percent }
\newlabel{fig:variance}{{5}{3}}
\@writefile{toc}{\contentsline {subsection}{\numberline {IV-C}Region Growing}{3}\protected@file@percent }
\@writefile{lof}{\contentsline {figure}{\numberline {6}{\ignorespaces Region Growing Detection on Hue Channel }}{4}\protected@file@percent }
\newlabel{fig:regiongrowing}{{6}{4}}
\@writefile{toc}{\contentsline {subsection}{\numberline {IV-D}Watershed}{4}\protected@file@percent }
\@writefile{lof}{\contentsline {figure}{\numberline {7}{\ignorespaces Watershed on Hue Channel }}{4}\protected@file@percent }
\newlabel{fig:watershed}{{7}{4}}
\@writefile{toc}{\contentsline {subsection}{\numberline {IV-E}Healthy Leaf -- Thresholding Detection}{4}\protected@file@percent }
\@writefile{lof}{\contentsline {figure}{\numberline {8}{\ignorespaces Healthy Leaf: Three distinct classes within image}}{4}\protected@file@percent }
\newlabel{fig:healthyLeaf}{{8}{4}}
\@writefile{lof}{\contentsline {figure}{\numberline {9}{\ignorespaces Hue-Saturation-Value of healthy leeaf}}{4}\protected@file@percent }
\newlabel{fig:healthyHSV}{{9}{4}}
\@writefile{lof}{\contentsline {figure}{\numberline {10}{\ignorespaces The two thresholds used to separate the three classes in healthy leaf image}}{5}\protected@file@percent }
\newlabel{fig:healthyThresh}{{10}{5}}
\@writefile{lof}{\contentsline {figure}{\numberline {11}{\ignorespaces Segmentation Result}}{5}\protected@file@percent }
\newlabel{fig:finalImage}{{11}{5}}
\@writefile{toc}{\contentsline {subsection}{\numberline {IV-F}Disease Leaf -- Clustering}{5}\protected@file@percent }
\@writefile{lof}{\contentsline {figure}{\numberline {12}{\ignorespaces Disease Leaf}}{5}\protected@file@percent }
\newlabel{fig:dLeaf}{{12}{5}}
\@writefile{lof}{\contentsline {figure}{\numberline {13}{\ignorespaces Hue channel of disease leaf}}{5}\protected@file@percent }
\newlabel{fig:dLeafHue}{{13}{5}}
\@writefile{lof}{\contentsline {figure}{\numberline {14}{\ignorespaces K Mean Clustering and Final Mask}}{5}\protected@file@percent }
\newlabel{fig:dKmeans}{{14}{5}}
\@writefile{lof}{\contentsline {figure}{\numberline {15}{\ignorespaces Final segmented disease leaf}}{5}\protected@file@percent }
\newlabel{fig:dFinal}{{15}{5}}
\citation{b1}
\bibcite{appleCNN}{1}
\bibcite{mangoCNN}{2}
\bibcite{alexNet}{3}
\bibcite{maizeCNN}{4}
\bibcite{GoogLeNet}{5}
\bibcite{b1}{6}
\bibcite{leafSEG}{7}
\bibcite{hsvVSrgb}{8}
\@writefile{toc}{\contentsline {subsection}{\numberline {IV-G}PyTorch Dataset Class}{6}\protected@file@percent }
\@writefile{toc}{\contentsline {section}{\numberline {V}Plant ID Net}{6}\protected@file@percent }
\@writefile{toc}{\contentsline {section}{References}{6}\protected@file@percent }
